Cyclone Tracking
…
BOM
Tropical Cyclone Database

3 Data Pipeline

cyclone_raw <- read_csv(paste0(base_dir,"cyclone_tracks.csv"))

cyclone_raw %>% 
  map_df(~(tibble(
    class = class(.x),
    n_distinct = n_distinct(.x),
    num_na = sum(is.na(.x)))
  ),.id = "variable")

## # A tibble: 80 × 4
##    variable       class     n_distinct num_na
##    <chr>          <chr>          <int>  <int>
##  1 NAME           character        511      6
##  2 DISTURBANCE_ID character       1062      6
##  3 TM             POSIXct        25505      6
##  4 TM             POSIXt         25505      6
##  5 TYPE           character          6      6
##  6 DATA_SRC       numeric           10   8835
##  7 SURFACE_CODE   numeric            6   1993
##  8 CYC_TYPE       numeric           13   9638
##  9 LAT            numeric         1083      6
## 10 LON            numeric         2096      6
## # … with 70 more rows
…
